"models","AICc","deltaaic","weights","aicw"
"OU1 3",-6.71986345406221,0,1,0.824032211487728
"BM1 default 1",-3.56117227782699,3.15869117623523,0.206109934871171,0.169841225441482
"OUM 4",3.08605851272027,9.80592196678248,0.00742456647360507,0.00611808193058243
"BMM default 5",16.248376547098,22.9682400011602,1.02922435421139e-05,8.48114020717842e-06
"ACDC 2",413.203460009592,419.923323463654,6.52843220683581e-92,5.37963842894662e-92
