"","reg_no","genus","species","latitude","longitude","tail_shape","sex","institution","plain_number","id","ratio","PC1","PC2","PC3"
"1","R00915","Anilios","guentheri",-12.33,133.03,"pointy","m","MAGNT","915","MAGNT_R00915",0.02,-1.34892168511959,-0.0393374584177603,-0.231806754809463
"2","R02568","Anilios","guentheri",-13.817,131.833,"pointy","f","MAGNT","2568","MAGNT_R02568",0.016,-0.51225812357077,0.384486139576443,-0.183670112320826
"3","R03279","Anilios","tovelli",-12.7,130.97,"pointy","m","MAGNT","3279","MAGNT_R03279",0.03,0.906430390716396,0.0265467606711323,0.0344467900248701
"4","R03301","Anilios","tovelli",-12.55,131.05,"pointy","f","MAGNT","3301","MAGNT_R03301",0.026,1.01196668639591,0.262931681038989,0.087216810789723
"5","R03422","Anilios","tovelli",-12.45,131.05,"pointy","m","MAGNT","3422","MAGNT_R03422",0.04,0.807162640726372,-0.278878165482077,-0.30805716588038
"6","R04012","Anilios","ligatus",-12.7,130.967,"pointy","f","MAGNT","4012","MAGNT_R04012",0.037,1.3367426144869,-0.0702318426211375,-0.0236543426697726
"7","R05544","Anilios","centralis",-23.7,133.87,"pointy","f","MAGNT","5544","MAGNT_R05544",0.02,-0.561180410462397,0.28294448373309,-0.130688394629813
"8","R06741","Anilios","guentheri",-15.75,128.7,"pointy","f","MAGNT","6741","MAGNT_R06741",0.012,-1.4169734458732,0.408711794107656,-0.281954770644402
"9","R07521","Anilios","minimus",-13.88,136.77,"pointy","f","MAGNT","7521","MAGNT_R07521",0.02,-0.654494167895522,-0.00847248979756556,0.139207288834254
"10","R08365","Anilios","ligatus",-12.45,131.05,"pointy","f","MAGNT","8365","MAGNT_R08365",0.035,1.25029187989702,0.00832798847259555,-0.0175064859153092
"11","R08718","Anilios","tovelli",-12.45,131.05,"pointy","m","MAGNT","8718","MAGNT_R08718",0.04,1.11855818491166,-0.299019355520929,-0.0978209746886742
"12","R09874","Anilios","minimus",-13.967,136.433,"pointy","m","MAGNT","9874","MAGNT_R09874",0.021,-0.889856511509364,-0.0226720317032553,-0.16093495618644
"13","R12044","Anilios","tovelli",-12.56,131.31,"pointy","m","MAGNT","12044","MAGNT_R12044",0.03,0.950130258328392,0.0464707991525864,-0.0671214468211975
"14","R12045","Anilios","tovelli",-12.563,131.308,"pointy","f","MAGNT","12045","MAGNT_R12045",0.028,0.666181792564113,0.118429605411314,0.0859264745406615
"15","R13936","Anilios","yirrikalae",-13.42,132.1,"pointy","f","MAGNT","13936","MAGNT_R13936",0.03,1.00858855928478,0.127364103337328,0.0565116447781804
"16","R14324","Anilios","fossor",-23.467,134.967,"pointy","f","MAGNT","14324","MAGNT_R14324",0.021,-0.826755079432241,-0.0146227762775141,0.0450281504887319
"17","R14333","Anilios","centralis",-24,133.43,"pointy","m","MAGNT","14333","MAGNT_R14333",0.02,-0.0618355298037511,0.0373960343990738,-0.053534968611502
"18","R14447","Anilios","yirrikalae",-17.317,137.067,"pointy","f","MAGNT","14447","MAGNT_R14447",0.018,0.510906941581147,0.498907317380791,0.0257609239036789
"19","R14956","Anilios","grypus",-20.87,130.27,"pointy","m","MAGNT","14956","MAGNT_R14956",0.04,-1.72882729353351,-0.895980125943025,-0.16423623136083
"20","R16047","Anilios","nema",-12.4,130.9,"pointy","m","MAGNT","16047","MAGNT_R16047",0.025,-1.03366630600346,-0.177232393797282,-0.0205573035079026
"21","R16855","Anilios","yirrikalae",-12.43,130.93,"pointy","m","MAGNT","16855","MAGNT_R16855",0.03,0.655643171157917,-0.044435081059175,0.262246527858702
"22","R17515","Anilios","grypus",-25.25,131,"pointy","f","MAGNT","17515","MAGNT_R17515",0.018,-2.26496032468999,-0.165954384721731,-0.149903380952401
"23","R17582","Anilios","endoterus",-24,133.9,"pointy","f","MAGNT","17582","MAGNT_R17582",0.02,-0.0669102367992932,0.439015390501374,-0.204849869745726
"24","R17586","Anilios","endoterus",-24,133.9,"pointy","f","MAGNT","17586","MAGNT_R17586",0.021,0.123746804670545,0.202646218113814,-0.0574275106798153
"25","R17589","Anilios","endoterus",-24,133.9,"pointy","m","MAGNT","17589","MAGNT_R17589",0.03,0.537621516292438,-0.179414345848349,-0.04433002479463
"26","R18360","Anilios","centralis",-23.517,133.267,"pointy","f","MAGNT","18360","MAGNT_R18360",0.014,-0.545806644317267,0.490794042522433,-0.375027954735642
"27","R21665","Anilios","nema",-12.43,130.83,"pointy",NA,"MAGNT","21665","MAGNT_R21665",0.01,-1.4909770932747,0.519851525510226,-0.176560880729579
"28","R24854","Anilios","sp",-15.376,130.106,"pointy","f","MAGNT","24854","MAGNT_R24854",0.018,-0.895030347347227,0.119668614771855,-0.230878955384078
"29","R27556","Anilios","nema",-12.39,130.88,"pointy","f","MAGNT","27556","MAGNT_R27556",0.02,-1.40213180949115,0.179766364243385,0.0272180734592459
"30","R27696","Anilios","nema",-13.033,131,"pointy","m","MAGNT","27696","MAGNT_R27696",0.052,-1.03356151675108,-0.967917718487782,0.0551198830527015
"31","R34038","Anilios","centralis",-23.62,136.88,"pointy","f","MAGNT","34038","MAGNT_R34038",0.02,-0.572650633466563,0.102837267406718,-0.110244359380729
"32","R34040","Anilios","endoterus",-25.3,130.717,"pointy","f","MAGNT","34040","MAGNT_R34040",0.025,0.305403482496581,0.0822702974923443,-0.0356925166899484
"33","R34041","Anilios","centralis",-23.7,133.88,"pointy","m","MAGNT","34041","MAGNT_R34041",0.03,0.053825317133331,-0.214709982977308,-0.228356875454281
"34","R34042","Anilios","centralis",-23.7,133.883,"pointy","m","MAGNT","34042","MAGNT_R34042",0.033,-0.0337507813148078,-0.304143601131677,-0.295046649279345
"35","R34043","Anilios","centralis",-23.7,133.88,"pointy","f","MAGNT","34043","MAGNT_R34043",0.02,-0.349127658346125,0.188174170397363,-0.154779833514113
"36","R34044","Anilios","centralis",-23.7,133.883,"pointy","f","MAGNT","34044","MAGNT_R34044",0.024,-0.558984335769053,-0.0836601676178523,-0.311970243124862
"37","R34053","Anilios","centralis",-23.7,133.85,"pointy","f","MAGNT","34053","MAGNT_R34053",0.02,-0.0883843921046796,0.342950786849624,-0.109562114226421
"38","R34083","Anilios","endoterus",-24.883,134.25,"pointy","f","MAGNT","34083","MAGNT_R34083",0.021,-0.255898104173858,0.10001798095378,-0.321777452546808
"39","R34084","Anilios","endoterus",-25.35,131.03,"pointy","m","MAGNT","34084","MAGNT_R34084",0.04,0.34162574001872,-0.370703946311498,0.073320253362029
"40","R34085","Anilios","endoterus",-25.35,131.033,"pointy","m","MAGNT","34085","MAGNT_R34085",0.035,-0.104254212249892,-0.333676329388253,0.156998003215667
"41","R34088","Anilios","endoterus",-21.01,130.08,"pointy","m","MAGNT","34088","MAGNT_R34088",0.04,1.02200944958295,-0.126697164839691,0.213935222472042
"42","R34091","Anilios","endoterus",-24.75,136,"pointy","m","MAGNT","34091","MAGNT_R34091",0.033,0.107278564487641,-0.200196235624536,-0.0590916429636376
"43","R34092","Anilios","endoterus",-23.95,133.93,"pointy","f","MAGNT","34092","MAGNT_R34092",0.02,0.151610763360508,0.102673584307362,0.0543773051318729
"44","R34094","Anilios","grypus",-25.35,131.033,"pointy","f","MAGNT","34094","MAGNT_R34094",0.022,-1.84410523966255,-0.246434166516964,-0.142558826236446
"45","R34100","Anilios","grypus",-20.75,130.28,"pointy","f","MAGNT","34100","MAGNT_R34100",0.02,-1.85941721830979,-0.27780616271914,-0.119115973739647
"46","R34104","Anilios","centralis",-23.767,133.883,"pointy","m","MAGNT","34104","MAGNT_R34104",0.038,0.346248177247567,-0.336997321550302,-0.0274577454585909
"47","R34110","Anilios","nema",-12.42,130.88,"pointy","f","MAGNT","34110","MAGNT_R34110",0.02,-0.005076595199138,0.117207571955054,0.417206478130024
"48","R34490","Anilios","centralis",-23.7,133.867,"pointy","m","MAGNT","34490","MAGNT_R34490",0.039,0.3997752489794,-0.340491938718588,-0.141100356434467
"49","R34491","Anilios","centralis",-23.8,133.73,"pointy","m","MAGNT","34491","MAGNT_R34491",0.03,-0.308346942897429,-0.180407846252568,0.0297725729380066
"50","R34492","Anilios","centralis",-23.767,133.883,"pointy","f","MAGNT","34492","MAGNT_R34492",0.018,-0.565325658043478,0.27477901498749,0.0415656944791727
"51","R34493","Anilios","centralis",-23.7,133.88,"pointy","m","MAGNT","34493","MAGNT_R34493",0.03,0.541602140657087,-0.0857235042303029,0.133026289469937
"52","R34494","Anilios","centralis",-23.7,133.883,"pointy","f","MAGNT","34494","MAGNT_R34494",0.024,0.411155139778271,0.15665126692484,-0.0128087845814653
"53","R36151","Anilios","tovelli",-11.34,132.59,"pointy","f","MAGNT","36151","MAGNT_R36151",0.03,0.578641595528794,0.00194885091772401,-0.0765916443964995
"54","R36153","Anilios","tovelli",-11.293,132.224,"pointy","?","MAGNT","36153","MAGNT_R36153",0.037,1.22953961376625,-0.0950708327294293,-0.018237929196168
"55","R36155","Anilios","tovelli",-12.18,136.11,"pointy","m","MAGNT","36155","MAGNT_R36155",0.04,1.06485821341094,-0.296763394458295,-0.0146753004955869
"56","J93635","Anilios","affinis",-20.511,146.867,"pointy","m","QM","93635","QM_J93635",0.034,-1.00672950766812,-0.488343417112748,0.00919801199579363
"57","J76269","Anilios","affinis",-19.75,147.8,"pointy","f","QM","76269","QM_J76269",0.01,-0.794317872485233,0.385531084146267,-0.073175047655218
"58","J44506","Anilios","affinis",-19.483,145.65,"pointy","m","QM","44506","QM_J44506",0.035,-0.452610812942481,-0.439738165169199,-0.173915763771345
"59","J76610","Anilios","affinis",-25.02,147.93,"pointy","f","QM","76610","QM_J76610",0.02,-0.821991359567532,0.0951071398310266,-0.0551430207585443
"60","J76612","Anilios","affinis",-25.09,147.866,"pointy","f","QM","76612","QM_J76612",0.012,-0.81656122107111,0.640188341516731,-0.0652663890883607
"61","J44501","Anilios","affinis",-20.77,146.17,"pointy","f","QM","44501","QM_J44501",0.02,-0.863281922753538,0.236069082877534,-0.316910509644671
"62","J44503","Anilios","affinis",-20.333,146.65,"pointy","m","QM","44503","QM_J44503",0.037,-0.761418139493567,-0.470586296909849,0.0225994171646242
"63","J45432","Anilios","affinis",-24.33,151.57,"pointy","m","QM","45432","QM_J45432",0.04,-0.173808350625097,-0.50339043537217,-0.00860262436685363
"64","J64586","Anilios","affinis",-23.517,150.333,"pointy","f","QM","64586","QM_J64586",0.017,-0.736722208201965,0.251253292699642,-0.10171572225203
"65","J61022","Anilios","affinis",-26.55,142.2,"pointy","m","QM","61022","QM_J61022",0.04,-0.720385307327112,-0.573501116751225,0.0866809539150313
"66","J44505","Anilios","affinis",-20.2,146.283,"pointy","f","QM","44505","QM_J44505",0.012,-0.451137571544972,0.70478565281454,-0.172347545296447
"67","J46706","Anilios","affinis",-22.82,145.37,"pointy","m","QM","46706","QM_J46706",0.04,-0.340820055423777,-0.533301619787465,0.00588837792723284
"68","J64584","Anilios","affinis",-23.517,150.333,"pointy","f","QM","64584","QM_J64584",0.021,-0.617193277465907,0.0892520599707692,-0.087273927285243
"69","J44499","Anilios","affinis",-19.63,145.78,"pointy","f","QM","44499","QM_J44499",0.02,-0.770851446807764,0.222446627227243,-0.0562270649914124
"70","J72756","Anilios","affinis",-22.345,145.4,"pointy","m","QM","72756","QM_J72756",0.029,-0.387904881687559,-0.233754800498504,-0.0629657250037219
"71","J61812","Anilios","affinis",-19.42,146.95,"pointy","m","QM","61812","QM_J61812",0.03,-0.877828280133101,-0.440416921127206,-0.0239102804369011
"72","J36879","Anilios","affinis",-23.517,148.167,"pointy","m","QM","36879","QM_J36879",0.031,-0.269922780136824,-0.231402596825099,0.265133893962203
"73","J81301","Anilios","affinis",-20.7,147.7,"pointy","m","QM","81301","QM_J81301",0.04,-0.625391030512396,-0.55371825824626,-0.112452589127814
"74","J23870","Anilios","affinis",-27.567,152.883,"pointy","f","QM","23870","QM_J23870",0.02,-0.291631519102731,0.176691447505552,0.0467429202397421
"75","J70008","Anilios","affinis",-27.7,152.86,"pointy","m","QM","70008","QM_J70008",0.05,0.288850893765879,-0.56550466694401,0.206013425039914
"76","J91822","Anilios","aspina",-20.768,141.742,"no spine","m","QM","91822","QM_J91822",0.025,-1.06965965513821,-0.233668616680346,-0.274305393918742
"77","J67159","Anilios","chamodracaena",-12.62,141.98,"pointy","f","QM","67159","QM_J67159",0.02,-0.580479305457618,-0.0453035876694673,-0.184897697088363
"78","J91848","Anilios","chamodracaena",-15.073,141.815,NA,NA,"QM","91848","QM_J91848",NA,0.667353683694602,-0.26928312857487,0.285523544749598
"79","J87535","Anilios","leucoproctus",-9.95,142.2,"pointy","f","QM","87535","QM_J87535",0.04,-0.238665455362653,-0.448346961693457,-0.323511875653438
"80","J87198","Anilios","leucoproctus",-10.182,142.268,"pointy","f","QM","87198","QM_J87198",0.031,-0.279870271703748,-0.265452911279128,-0.0629038816568299
"81","J379","Anilios","leucoproctus",-9.58,143.77,"pointy","f","QM","379","QM_J379",0.03,-0.155924665817662,-0.123106324785564,-0.0299259212947473
"82","J87172","Anilios","leucoproctus",-10.682,142.184,"pointy","m","QM","87172","QM_J87172",0.042,0.0567878925517071,-0.530848767166229,-0.17456683168704
"83","J87547","Anilios","leucoproctus",-10.17,142.13,"pointy","f","QM","87547","QM_J87547",0.03,0.381043708472263,-0.252777068095873,-0.317184726084279
"84","J2953","Anilios","broomi",-17.317,145.217,"pointy","m","QM","2953","QM_J2953",0.024,-0.468349975637521,-0.0615509869906608,-0.0754757814018045
"85","J87805","Anilios","broomi",-15.76,145.23,"pointy","m","QM","87805","QM_J87805",0.03,0.746214139558545,-0.0821057163891351,-0.0342949562383446
"86","J88156","Anilios","broomi",-19.264,143.699,"pointy","m","QM","88156","QM_J88156",0.032,-0.0598153029179856,-0.166204750280148,-0.0640727616110374
"87","J2954","Anilios","broomi",-17.32,145.22,"pointy","f","QM","2954","QM_J2954",0.02,-0.492633308908941,0.378974294084111,-0.312698016438673
"88","J47503","Anilios","broomi",-17.317,145.217,"pointy","m","QM","47503","QM_J47503",0.026,0.872404169996595,0.158797317804941,-0.0680186777603547
"89","J85788","Anilios","broomi",-20,148.23,"pointy","f","QM","85788","QM_J85788",0.02,-0.676706027951397,0.131069631824334,-0.299226327278579
"90","J90500","Anilios","broomi",-17.141,144.525,"pointy","m","QM","90500","QM_J90500",0.029,0.374423175088251,-0.0809701646462468,-0.110920739730551
"91","J67603","Anilios","broomi",-19.44,145.68,"pointy","m","QM","67603","QM_J67603",0.02,-0.391009194495923,-0.0269058032220583,-0.170447262925551
"92","J90499","Anilios","broomi",-17.141,144.525,"pointy","m","QM","90499","QM_J90499",0.026,-0.664465356237262,-0.151046897432375,0.0733647440615433
"93","J20315","Anilios","broomi",-16.68,145.33,"pointy","m","QM","20315","QM_J20315",0.03,-0.313026164700595,-0.098024646185266,-0.214155627545089
"94","J47254","Anilios","broomi",-15.467,145.25,"pointy","f","QM","47254","QM_J47254",0.02,-0.290502827659466,0.177294629569089,-0.119206698390222
"95","J46849","Anilios","broomi",-15.47,145.25,"pointy","m","QM","46849","QM_J46849",0.03,0.299872252119591,-0.203011947878805,0.0867128005492525
"96","J39843","Anilios","torresianus",-12.5,141.667,"pointy","f","QM","39843","QM_J39843",0.028,0.476916570658309,0.0222800264187241,-0.399572395161466
"97","J30838","Anilios","torresianus",-17.43,145.48,"pointy","m","QM","30838","QM_J30838",0.05,0.774037966737328,-0.562217832984609,-0.126579343723576
"98","J5700","Anilios","torresianus",-16.75,145.617,"pointy","m","QM","5700","QM_J5700",0.062,0.912918832403479,-0.70254499358738,-0.0973313465323167
"99","J10885","Anilios","torresianus",-17.27,145.48,"pointy","m","QM","10885","QM_J10885",0.03,1.21043770574782,0.253171752342406,-0.0405907775154403
"100","J25566","Anilios","torresianus",-17.083,145.583,"pointy","f","QM","25566","QM_J25566",0.031,1.65289755855042,0.186221654961437,0.106014556868677
"101","J48213","Anilios","torresianus",-17.82,145.78,"pointy","m","QM","48213","QM_J48213",0.05,0.592715914825509,-0.62716089586763,-0.174761986426477
"102","J48248","Anilios","torresianus",-17.79,145.782,"pointy","f","QM","48248","QM_J48248",0.028,0.63015025637403,0.0543714461998146,-0.155944091878061
"103","J47248","Anilios","torresianus",-16.92,145.77,"pointy","f","QM","47248","QM_J47248",0.06,0.682719038965848,-0.707438857772689,-0.148384743738712
"104","J50852","Anilios","torresianus",-21.167,148.5,"pointy","f","QM","50852","QM_J50852",0.03,0.5813742652475,-0.0691808090360368,-0.216488212100057
"105","J54031","Anilios","torresianus",-11.75,142.58,"pointy","m","QM","54031","QM_J54031",0.05,0.788717730846678,-0.550360633088618,-0.154514938035516
"106","J54041","Anilios","torresianus",-11.65,142.617,"pointy","f","QM","54041","QM_J54041",0.029,0.631855694180125,0.0236909541450622,-0.160558334619853
"107","J80559","Anilios","torresianus",-17.61,145.56,"pointy",NA,"QM","80559","QM_J80559",0.03,-0.234257056882481,-0.211038543578407,-0.472088530631976
"108","J79900","Anilios","torresianus",-19.632,147.051,"pointy","m","QM","79900","QM_J79900",0.061,1.24424966203959,-0.580215365017092,-0.200966675206606
"109","J79868","Anilios","torresianus",-19.27,146.82,"pointy","m","QM","79868","QM_J79868",0.06,0.784384401798487,-0.596989610980901,-0.0242380821515169
"110","J79947","Anilios","torresianus",-22.318,148.51,"pointy","f","QM","79947","QM_J79947",0.033,0.451023879319988,-0.131425102916776,-0.161478777707789
"111","J80562","Anilios","torresianus",-17.58,145.3,"pointy","f","QM","80562","QM_J80562",0.02,0.14174766862239,0.0729799453008194,-0.21557104139881
"112","J60625","Anilios","torresianus",-15.267,145.333,"pointy","f","QM","60625","QM_J60625",0.049,0.609897890487572,-0.534158216537158,-0.196656185100227
"113","J81278","Anilios","torresianus",-17.21,145.68,"pointy","f","QM","81278","QM_J81278",0.03,0.437224102231572,-0.0562666807899998,-0.233603425326195
"114","J85794","Anilios","torresianus",-17.703,145.527,"pointy","f","QM","85794","QM_J85794",0.029,0.360029732170922,-0.0686762119511664,-0.485208126970876
"115","J87053","Anilios","torresianus",-15.79,145.23,"pointy","m","QM","87053","QM_J87053",0.06,0.448711373679241,-0.7099469819276,-0.220870240762333
"116","J60852","Anilios","silvia",-25.467,153.05,"pointy",NA,"QM","60852","QM_J60852",0.048,0.834528604149363,-0.480334132131289,-0.0645912116906878
"117","J77029","Anilios","silvia",-26.31,152.97,"pointy",NA,"QM","77029","QM_J77029",0.03,0.53872176066405,0.0989775314813794,-0.0437226744882983
"118","J85945","Anilios","silvia",-25.879,153.071,"pointy","f","QM","85945","QM_J85945",0.023,0.25951730184684,0.128272413740968,-0.0353873459182511
"119","J76833","Anilios","silvia",-26.42,153.03,"pointy",NA,"QM","76833","QM_J76833",0.03,1.01804115531091,0.118433795818423,0.0506679798575693
"120","J82203","Anilios","silvia",-26.592,152.976,"pointy",NA,"QM","82203","QM_J82203",0.024,0.648817197068611,0.235011081922126,-0.1361399898451
"121","J27386","Anilios","silvia",-25.97,153.12,"pointy","m","QM","27386","QM_J27386",0.04,1.12806475541569,-0.279344787856833,-0.167839596304841
"122","J23620","Anilios","silvia",-25.967,153.1,"pointy",NA,"QM","23620","QM_J23620",0.029,0.902969413258542,0.100006525616914,0.0450160508484671
"123","J35872","Anilios","silvia",-25.68,152.88,"pointy",NA,"QM","35872","QM_J35872",0.03,-0.0156141786061061,0.0568497519223833,0.199932049090573
"124","J31577","Anilios","silvia",-25.183,153.267,"pointy",NA,"QM","31577","QM_J31577",0.031,0.56028643816039,-0.0523031800119329,0.0783565055395373
"125","J46128","Anilios","silvia",-26.17,152.92,"pointy",NA,"QM","46128","QM_J46128",0.05,0.967304722772598,-0.523404653810014,0.0949836334441358
"126","J31576","Anilios","silvia",-25.183,153.267,"pointy",NA,"QM","31576","QM_J31576",0.028,0.57226604123493,0.0589069987477296,-0.00667795875701595
"127","J8521","Anilios","silvia",-26.63,152.97,"pointy",NA,"QM","8521","QM_J8521",0.05,0.867554800338905,-0.509007893649741,-0.0741629992330036
"128","J31579","Anilios","silvia",-24.867,153.267,"pointy",NA,"QM","31579","QM_J31579",0.029,0.618068456025922,0.0374728263178031,0.150107799385079
"129","J43785","Anilios","silvia",-25.97,153.12,"pointy",NA,"QM","43785","QM_J43785",0.06,1.89305385950182,-0.359139827602199,0.231809689467019
"130","J27387","Anilios","silvia",-25.967,153.117,"pointy",NA,"QM","27387","QM_J27387",0.036,0.937488151643215,-0.105403776650641,-0.0841067554474903
"131","J63736","Anilios","robertsi",-15.83,145.23,"pointy",NA,"QM","63736","QM_J63736",0.02,-0.759583773912187,0.236477497363865,-0.354112672188992
"132","J7","Anilios","aspina",-23.283,145.4,"no spine",NA,"QM","7","QM_J7",0.011,-1.82527530523756,0.459624337403005,-0.24892884442354
"133","J51541","Anilios","aspina",-23.45,145.27,"no spine",NA,"QM","51541","QM_J51541",0.02,-0.704461798528253,-0.112691775917402,-0.218295931706842
"134","J54987","Anilios","insperatus",-27.817,152.617,"pointy",NA,"QM","54987","QM_J54987",0.031,1.58682509781715,0.198143919609192,0.159717519565488
"135","J31963","Anilios","chamodracaena",-12.55,141.82,"pointy","m","QM","31963","QM_J31963",0.03,-0.347085746318931,-0.0611358558329706,0.0432665811639035
"136","J41550","Anilios","chamodracaena",-12.617,141.867,"pointy","juvenile","QM","41550","QM_J41550",0.028,0.211623134024847,-0.0395967947040335,0.253757360388516
"137","J51980","Anilios","chamodracaena",-16.23,141.75,"pointy","f","QM","51980","QM_J51980",0.01,-0.61231264453926,0.485044057875716,-0.130964825068226
"138","J39673","Anilios","chamodracaena",-13.083,141.95,"pointy","f","QM","39673","QM_J39673",0.012,-1.12822101772701,0.507491285542856,-0.0960595629249671
"139","J28082","Anilios","chamodracaena",-12.97,143.48,"pointy","f","QM","28082","QM_J28082",0.02,-0.48317047947025,0.249453670053039,-0.250321168961519
"140","J40233","Anilios","chamodracaena",-13.083,141.95,"pointy","f","QM","40233","QM_J40233",0.013,-0.516771218997627,0.598040752569018,-0.0267663937687451
"141","J2943","Anilios","diversus",-26.42,147.12,"pointy","f","QM","2943","QM_J2943",0.02,-0.446859980509846,0.14388697432163,0.0350999126281498
"142","J76624","Anilios","wiedii",-26.576,148.774,"pointy","f","QM","76624","QM_J76624",0.017,-1.00335094526822,0.147334920418667,-0.2611061764525
"143","J27592","Anilios","wiedii",-27.47,153.02,"pointy","f","QM","27592","QM_J27592",0.02,-0.347246759129582,0.00664402419838729,-0.0973012335493323
"144","J84833","Anilios","wiedii",-27.465,152.851,"pointy","f","QM","84833","QM_J84833",0.017,-0.404059626421093,0.290508598789428,-0.243925742044225
"145","J25081","Anilios","wiedii",-28.03,151.98,"pointy","f","QM","25081","QM_J25081",0.02,-0.221406196044058,0.273572711139363,-0.172175843704416
"146","J23961","Anilios","wiedii",-27.283,153,"pointy","f","QM","23961","QM_J23961",0.019,-0.13834061398499,0.247835919828719,-0.273843255427321
"147","J43373","Anilios","wiedii",-24.13,149.8,"pointy","m","QM","43373","QM_J43373",0.04,-1.1852233436264,-0.32096728251134,-0.17137894897419
"148","J69267","Anilios","wiedii",-23.754,151.115,"pointy","m","QM","69267","QM_J69267",0.041,0.0120906465757101,-0.484244833580663,-0.0197316973031992
"149","J68759","Anilios","wiedii",-22.91,149.83,"pointy","m","QM","68759","QM_J68759",0.04,0.42483026414657,-0.282142023914216,-0.0268035550736953
"150","J9535","Anilios","wiedii",-30.983,150.25,"pointy","f","QM","9535","QM_J9535",0.011,-0.740743055851028,0.54865219901453,-0.222052910419056
"151","J7855","Anilios","wiedii",-27.18,151.25,"pointy","m","QM","7855","QM_J7855",0.03,-0.0975701269689093,-0.336324499175895,-0.127127315148336
"152","J3207","Anilios","wiedii",-24.867,152.35,"pointy","m","QM","3207","QM_J3207",0.04,-0.118720918121202,-0.49550851809592,0.0309650033221771
"153","J7468","Anilios","wiedii",-27.18,151.25,"pointy","m","QM","7468","QM_J7468",0.04,0.0651228116889368,-0.484256114893124,-0.0549746559580941
"154","J85695","Anilios","yirrikalae",-18.702,138.485,"pointy","f","QM","85695","QM_J85695",0.016,-0.112446217431973,0.428011205233552,0.0039238237516508
"155","J84363","Anilios","proximus",-26.87,151.85,"pointy","f","QM","84363","QM_J84363",0.02,1.13165247455228,0.331833904566776,-0.480679476453482
"156","J76618","Anilios","proximus",-24.964,147.999,"pointy","f","QM","76618","QM_J76618",0.018,1.11121562557839,0.628069527264306,-0.124596537026815
"157","J87197","Anilios","proximus",-27.67,152.97,"pointy","f","QM","87197","QM_J87197",0.02,0.931377471876442,0.492267144612542,-0.134251468022205
"158","J76616","Anilios","proximus",-24.799,147.89,"pointy","m","QM","76616","QM_J76616",0.043,1.69318167299064,-0.125761674044698,-0.264187705158141
"159","J77667","Anilios","proximus",-23.76,149.11,"pointy","f","QM","77667","QM_J77667",0.03,1.23812078270231,0.303760984065502,-0.155788541604629
"160","J76615","Anilios","proximus",-24.799,147.89,"pointy","f","QM","76615","QM_J76615",0.016,1.55209439242248,0.842652210170912,-0.0073214715107498
"161","J62483","Anilios","proximus",-26.39,153.82,"pointy","m","QM","62483","QM_J62483",0.05,2.11531184300881,-0.149547701850123,0.125588055910572
"162","J62482","Anilios","proximus",-26.391,153.817,"pointy","f","QM","62482","QM_J62482",0.025,0.714578312191516,0.233324536824223,0.095908350069754
"163","J69357","Anilios","proximus",-25.06,148.21,"pointy","f","QM","69357","QM_J69357",0.02,1.11711645150386,0.299180702419111,-0.356563524319718
"164","J89808","Anilios","proximus",-27.091,150.658,"pointy","m","QM","89808","QM_J89808",0.035,1.43912067836779,0.0122496893041241,0.0310878020698932
"165","J81309","Anilios","ligatus",-19.85,147.02,"pointy","m","QM","81309","QM_J81309",0.05,1.51813920304199,-0.2589370695768,-0.188220078193814
"166","J89804","Anilios","ligatus",-26.94,150.376,"pointy","m","QM","89804","QM_J89804",0.045,2.1275802943396,-0.110313096308467,-0.300144619598555
"167","J87267","Anilios","ligatus",-16.59,145.2,"pointy","m","QM","87267","QM_J87267",0.05,1.89969604450803,-0.243968385437205,-0.106431651679507
"168","J81321","Anilios","ligatus",-21.084,147.793,"pointy","female?","QM","81321","QM_J81321",0.033,1.7321623601281,0.13698286229327,-0.248232154258506
"169","J89565","Anilios","ligatus",-27.67,152.52,"pointy","female?","QM","89565","QM_J89565",0.03,1.54417716809336,0.117944892572861,-0.162382466558008
"170","J85319","Anilios","unguirostris",-21.77,147.922,"pointy","f","QM","85319","QM_J85319",0.018,0.103816870611128,0.434511715647719,0.141839574962886
"171","J76932","Anilios","unguirostris",-22.72,147.52,"pointy","f","QM","76932","QM_J76932",0.01,0.229584903855413,0.61501468959289,-0.166701628904394
"172","J88951","Anilios","unguirostris",-16.661,139.18,"pointy","m","QM","88951","QM_J88951",0.025,0.0018933810078341,-0.00297198734620149,-0.0890671810761756
"173","J96911","Anilios","unguirostris",-23.23,150.7,"pointy","f","QM","96911","QM_J96911",0.01,-0.0325822373353085,0.71889927500517,0.212396543435945
"174","R.148795","Anilios","proximus",-17.38,145.38,"pointy",NA,"AM","148795","AM_R.148795",0.02,0.546222276802307,0.23038068181636,-0.195980412526684
"175","R.12125","Anilios","pinguis",-34.03,117.63,"pointy","f","AM","12125","AM_R.12125",0.03,1.28474452504832,0.316055321083598,-0.231963261785749
"176","R.41163","Anilios","ligatus",-30.75,148.67,"pointy","f","AM","41163","AM_R.41163",0.03,1.91974453328576,0.311327377974262,-0.553480718259467
"177","R.63835","Anilios","ligatus",-18.2,144.78,"pointy","f","AM","63835","AM_R.63835",0.03,1.58349725356998,0.157244010814844,-0.357787398403749
"178","R.118650","Anilios","proximus",-34.55,146.4,"pointy",NA,"AM","118650","AM_R.118650",0.02,1.27370909486804,0.562113124776383,-0.287158938485966
"179","R.174275","Anilios","proximus",-30.77,149.76,"pointy",NA,"AM","174275","AM_R.174275",0.04,1.93480371444992,-0.148345770004355,-0.158214618317699
"180","R.27306","Anilios","pinguis",-33.53,118.5,"pointy","f","AM","27306","AM_R.27306",0.04,2.45250535536878,0.0776961248998806,-0.222242566796362
"181","R.163332","Anilios","proximus",-35.11,147.3,"pointy",NA,"AM","163332","AM_R.163332",0.02,0.998760569982255,0.466544037781297,-0.0735912779482883
"182","R.16743","Anilios","ligatus",-28.98,149,"pointy","m","AM","16743","AM_R.16743",0.05,2.05811060038388,-0.154438908582444,-0.252325900850365
"183","R.161717","Anilios","proximus",-30.36,150.91,"pointy",NA,"AM","161717","AM_R.161717",0.02,1.44615200753937,0.474338974211587,-0.171331942360683
"184","R.129327","Anilios","wiedii",-30.75,150.72,"pointy",NA,"AM","129327","AM_R.129327",0.04,0.00665327051024589,-0.428233516280309,-0.0596672047061079
"185","R.17863","Anilios","wiedii",-33.38,148.02,"pointy",NA,"AM","17863","AM_R.17863",0.04,0.25179024912872,-0.319947777679515,-0.17396627731433
"186","R.123430","Anilios","proximus",-33.05,148.28,"pointy",NA,"AM","123430","AM_R.123430",0.04,1.66450830037454,-0.142430370411387,0.0285643573987835
"187","R.15661","Anilios","wiedii",-31.43,149.6,"pointy",NA,"AM","15661","AM_R.15661",0.02,-0.0657636376763208,0.215048536565973,-0.126524084560382
"188","R.175581","Anilios","wiedii",-31.43,143.88,"pointy","m","AM","175581","AM_R.175581",0.02,-0.7634750861121,-0.128907838210273,-0.130407769476716
"189","R.71171","Anilios","wiedii",-31.35,150.65,"pointy",NA,"AM","71171","AM_R.71171",0.04,0.0637959741164793,-0.458215442294321,-0.146698976825573
"190","R.130480","Anilios","wiedii",-29.72,152.93,"pointy","m","AM","130480","AM_R.130480",0.03,-0.614038372229419,-0.256255913327489,-0.340546710255175
"191","R.127956","Anilios","troglodytes",-16.53,145.13,"pointy","u","AM","127956","AM_R.127956",0.02,0.330120873517804,0.0949155466946699,-0.0244034272346096
"192","R.40107","Anilios","wiedii",-32.05,150.87,"pointy",NA,"AM","40107","AM_R.40107",0.02,-0.581755597982903,0.122608300234942,0.0211507890740976
"193","R.32740","Anilios","wiedii",-31.65,148.45,"pointy",NA,"AM","32740","AM_R.32740",0.02,-0.41933303127735,0.0510249124949005,-0.0851549702985398
"194","R.8515","Anilios","troglodytes",-23.37,150.53,"pointy","f","AM","8515","AM_R.8515",0.02,-0.342716813460829,-0.00781393114543994,-0.17817944374059
"195","R.40918","Anilios","minimus",-12,135.67,NA,NA,"AM","40918","AM_R.40918",0.02,0.0913504856568727,0.137041632024157,-0.167883770677778
"196","R.71301","Anilios","minimus",-13.97,136.45,"pointy","j","AM","71301","AM_R.71301",0.01,-0.443842221707772,0.573192428638932,-0.0195231341541521
"197","R45005","Anilios","grypus",-26.08,140.9,"round to point","f","SAM","45005","SAM_R45005",0.01,-1.41507698762459,0.431032723866417,0.19666924149814
"198","R47762","Ramphotyphlops","acuticaudis",7.367,134.55,"taper to a point, pointy spur","f","SAM","47762","SAM_R47762",0.03,0.148538323617009,-0.0778310579004942,0.188668192291615
"199","R48029","Ramphotyphlops","acuticaudis",7.62,134.64,"taper to a point, pointy spur","m","SAM","48029","SAM_R48029",0.04,0.113537867281217,-0.352074315733056,0.0595872976684541
"200","R3565","Anilios","affinis",-19.6,146.83,"round to point, no spur","f","SAM","3565","SAM_R3565",0.014,-0.842802984959316,0.501554688808981,0.199240506761184
"201","R55645","Anilios","affinis",-23.63,149.2,"round to point, no spur","m","SAM","55645","SAM_R55645",0.03,0.491920097716256,0.109207472645934,0.360316107945008
"202","R926A","Anilios","australis",-32.12,115.83,"round to point","f","SAM","926A","SAM_R926A",0.03,0.922299578108345,0.0957949977719541,0.26390237928885
"203","R22906","Anilios","australis",-33.72,121.37,"round to point","j","SAM","22906","SAM_R22906",0.03,1.01843598954195,0.155268834559981,0.181779039791149
"204","R26901","Anilios","australis",-31.75,115.78,"round to point","m","SAM","26901","SAM_R26901",0.044,0.622507205644091,-0.366832242315667,0.305552064801707
"205","R926B","Anilios","australis",-32.12,115.83,"round to point","m","SAM","926B","SAM_R926B",0.04,1.35490319850542,-0.232598221862482,0.200283771836356
"206","R860","Anilios","bicolor",-34.93,138.68,"sharp pointy","f","SAM","860","SAM_R860",0.028,1.9112163000121,0.384583841628572,-0.15533078931548
"207","R1796","Anilios","bicolor",-36.37,140.7,"sharp pointy","f","SAM","1796","SAM_R1796",0.03,1.8434019780334,0.309935590616532,0.53086988664524
"208","R3720","Anilios","bicolor",-34.43,135.93,"sharp pointy","f","SAM","3720","SAM_R3720",0.025,1.40055825221965,0.379101117688103,0.0231402126142296
"209","R6200","Anilios","bicolor",-34.67,138.88,"sharp pointy","f","SAM","6200","SAM_R6200",0.03,1.55404527286332,0.116854976186061,0.349441253164875
"210","R43160","Anilios","bicolor",-34.57,139.6,"sharp pointy","f","SAM","43160","SAM_R43160",0.027,1.2348764328039,0.238051215480612,-0.113494878333845
"211","R55342","Anilios","bicolor",-33.72,139.98,"sharp pointy","f","SAM","55342","SAM_R55342",0.03,1.12248648531646,0.109295968525287,0.34850628601909
"212","R63435","Anilios","bicolor",-31.481,131.496,"sharp pointy","f","SAM","63435","SAM_R63435",0.027,1.67161924178095,0.402013097587347,0.24347890528256
"213","R63472","Anilios","bicolor",-30.17,139.33,"sharp pointy","f","SAM","63472","SAM_R63472",0.03,1.09279249529833,0.0837361646367766,0.604079161656276
"214","R71415","Anilios","bicolor",-33.206,136.193,"sharp pointy","f","SAM","71415","SAM_R71415",0.022,1.07130300822499,0.464246301153264,0.0881494624823205
"215","R2750","Anilios","bicolor",-35.02,138.6,"sharp pointy","m","SAM","2750","SAM_R2750",0.04,1.01314649654544,-0.146438123920878,-0.0331297591443021
"216","R5832","Anilios","bicolor",-35.03,138.6,"sharp pointy","m","SAM","5832","SAM_R5832",0.041,1.6673580663844,-0.066526987913987,0.152679033124196
"217","R16182","Anilios","bicolor",-35.58,140.52,"sharp pointy","m","SAM","16182","SAM_R16182",0.06,2.23389414714203,-0.226670727674419,0.269868601784794
"218","R12796","Anilios","bituberculatus",-34.37,136.13,"round to point, no spur","f","SAM","12796","SAM_R12796",0.017,-0.24030545578878,0.34099644526032,-0.225540392419919
"219","R20806","Anilios","bituberculatus",-32.85,135.95,"round to point, no spur","f","SAM","20806","SAM_R20806",0.03,-0.198191536102125,0.0249863652634108,0.232837529871483
"220","R28597","Anilios","bituberculatus",-32.48,135.37,"round to point, no spur","f","SAM","28597","SAM_R28597",0.019,-0.438972994168379,0.244494604151255,0.252778344841152
"221","R40019","Anilios","bituberculatus",-27.18,140.15,"round to point, no spur","f","SAM","40019","SAM_R40019",0.01,-1.00354229880071,0.435802767411088,0.152412114622647
"222","R44731","Anilios","bituberculatus",-27.556,134.425,"round to point, no spur","f","SAM","44731","SAM_R44731",0.015,-0.685838790334839,0.42473146247561,0.278598172620377
"223","R44841","Anilios","bituberculatus",-26.25,131.79,"round to point, no spur","f","SAM","44841","SAM_R44841",0.02,-0.796592936020872,0.364521913213932,0.362100718470113
"224","R59212","Anilios","bituberculatus",-34.013,138.085,"round to point, no spur","f","SAM","59212","SAM_R59212",0.019,-0.721694612364645,0.143705506643161,0.0894217404989575
"225","R63990","Anilios","bituberculatus",-32.72,137.9,"round to point, no spur","f","SAM","63990","SAM_R63990",0.02,-0.639906441724669,0.165852675037261,0.174471491230715
"226","R70271","Anilios","bituberculatus",-29.889,133.583,"round to point, no spur","f","SAM","70271","SAM_R70271",0.016,-0.897057990398178,0.31993213594501,-0.0291052093366123
"227","R9214","Anilios","bituberculatus",-33.67,135.47,"round to point, no spur","m","SAM","9214","SAM_R9214",0.03,0.16891200135072,-0.0193941228881666,0.207497285318882
"228","R24765","Anilios","bituberculatus",-28.17,140.18,"round to point, no spur","m","SAM","24765","SAM_R24765",0.024,-0.814804148276854,-0.0441148670064006,0.199735724752954
"229","R39658","Anilios","bituberculatus",-35.76,139.99,"round to point, no spur","m","SAM","39658","SAM_R39658",0.03,0.242703514205372,0.00135498019892689,0.18083714935954
"230","R46448","Anilios","bituberculatus",-29.183,136.597,"round to point, no spur","m","SAM","46448","SAM_R46448",0.022,-0.695778836310271,0.0508294204815223,0.45041833447284
"231","R67340","Anilios","bituberculatus",-31.31,134.79,"round to point, no spur","m","SAM","67340","SAM_R67340",0.02,-0.278853102750398,0.146648455381224,0.279988401552699
"232","R10174","Anilios","bituberculatus",-33.87,136,"round to point, no spur","u","SAM","10174","SAM_R10174",0.015,-0.134055893372213,0.535957517837777,0.240140618360208
"233","R851","Anilios","broomi",-16.92,145.77,"round to point, no spur","u","SAM","851","SAM_R851",0.02,0.354394789701965,0.423565039001414,0.343303310993186
"234","R2175","Anilios","nigrescens",-27.97,153.18,"taper to a point, pointy spur","m","SAM","2175","SAM_R2175",0.054,0.0662467509428217,-0.813349789485397,-0.27278567047243
"235","R14158","Anilios","waitii",-23.7,133.87,"tapers to a point, small spur","f","SAM","14158","SAM_R14158",0.02,-1.03067032609932,0.157274204254912,0.386644653365904
"236","R48409","Anilios","waitii",-28.199,134.707,"tapers to a point, small spur","f","SAM","48409","SAM_R48409",0.028,-0.539330700575178,-0.203104052084308,-0.019643881453861
"237","R51254","Anilios","waitii",-27,133.47,"tapers to a point, small spur","f","SAM","51254","SAM_R51254",0.02,-0.680599274827671,0.323450141510731,0.185984153397582
"238","R52863","Anilios","waitii",-26.487,134.042,"tapers to a point, small spur","f","SAM","52863","SAM_R52863",0.014,-0.888422209008938,0.45818922648571,-0.125903149214843
"239","R56511","Anilios","waitii",-26.99,133.41,"tapers to a point, small spur","f","SAM","56511","SAM_R56511",0.01,-0.930295822446843,0.50883748257529,0.214477328080162
"240","R3809","Anilios","waitii",-23.7,133.87,"tapers to a point, small spur","m","SAM","3809","SAM_R3809",0.02,-0.265233073130211,0.252723246372252,0.335043911151803
"241","R51244","Anilios","waitii",-27.02,133.47,"tapers to a point, small spur","m","SAM","51244","SAM_R51244",0.03,-0.418533499276562,-0.0415092114913323,0.0765104517130611
"242","R40480","Anilios","waitii",-26.42,135.4,"tapers to a point, small spur","u","SAM","40480","SAM_R40480",0.027,-0.835409563013633,-0.227674454158122,0.202068564727323
"243","R932","Ramphotyphlops","depressus",NA,NA,"cone shape, taper to a point","f","SAM","932","SAM_R932",0.04,0.796387434313724,-0.368359758902268,0.124085482013641
"244","R60242","Ramphotyphlops","depressus",-5.371,152.111,"cone shape, taper to a point","f","SAM","60242","SAM_R60242",0.043,0.48157540521517,-0.369377881569008,0.0941095638784483
"245","R934","Ramphotyphlops","depressus",NA,NA,"cone shape, taper to a point","m","SAM","934","SAM_R934",0.06,0.998734519396073,-0.522768737914374,0.224866168068242
"246","R1353","Anilios","diversus",-17.97,122.23,"round, spur facing down","f","SAM","1353","SAM_R1353",0.021,-0.614184200772715,0.14819328955376,0.349349366444249
"247","R51126","Anilios","diversus",-15.77,128.73,"round, spur facing down","f","SAM","51126","SAM_R51126",0.01,-0.77977385256906,0.601538321176544,-0.00870530910904416
"248","R925","Anilios","diversus",-17.97,122.23,"round, spur facing down","m","SAM","925","SAM_R925",0.031,0.0230423734621832,-0.154969972422528,0.151717743843963
"249","R55325","Anilios","diversus",-21.91,140.01,"round, spur facing down","u","SAM","55325","SAM_R55325",0.02,-1.2389732007072,0.254081506224663,0.15331149851866
"250","R26684","Anilios","endoterus",-29.358,134.47,"round to point, no spur","f","SAM","26684","SAM_R26684",0.019,-0.287033473700683,0.307245600159287,0.338189878835787
"251","R44676","Anilios","endoterus",-27.32,133.3,"round to point, no spur","f","SAM","44676","SAM_R44676",0.02,-0.396968626489542,0.176144877048298,0.366153412844046
"252","R45295","Anilios","endoterus",-30.823,135.822,"round to point, no spur","f","SAM","45295","SAM_R45295",0.016,-0.231825674266358,0.435944113379925,0.158203260682188
"253","R45442","Anilios","endoterus",-26.95,131.44,"round to point, no spur","f","SAM","45442","SAM_R45442",0.02,-0.525346430761019,0.38224310773856,-0.0702794367882782
"254","R50991","Anilios","endoterus",-27.423,140.229,"round to point, no spur","f","SAM","50991","SAM_R50991",0.015,-0.43659964449063,0.489692117826649,0.266368088322109
"255","R51038","Anilios","endoterus",-27.29,140.29,"round to point, no spur","f","SAM","51038","SAM_R51038",0.03,-0.349031779218725,-0.329361454929845,0.372242511997673
"256","R65617","Anilios","endoterus",-30.617,135.612,"round to point, no spur","f","SAM","65617","SAM_R65617",0.017,-0.313014966822961,0.364509801101876,0.138864690188861
"257","R66587","Anilios","endoterus",-30.3,138.02,"round to point, no spur","f","SAM","66587","SAM_R66587",0.02,-0.420298292957207,0.397159700270587,0.358219011988725
"258","R70802","Anilios","endoterus",-28.815,129.549,"round to point, no spur","f","SAM","70802","SAM_R70802",0.019,-0.0827923735618629,0.288277581444955,0.203459420769941
"259","R20864","Anilios","endoterus",-30.45,136.88,"round to point, no spur","m","SAM","20864","SAM_R20864",0.03,-0.44032724541578,-0.306139883496453,0.137539159852057
"260","R58079","Anilios","endoterus",-28.399,134.088,"round to point, no spur","m","SAM","58079","SAM_R58079",0.016,-0.535517529269529,0.374168046696082,0.148397113563195
"261","R4639","Anilios","grypus",-21.32,117.22,"round to point","f","SAM","4639","SAM_R4639",0.02,-1.69049960534624,-0.105623393834938,0.0642096274959466
"262","R19007","Anilios","grypus",-25.9,139.35,"round to point","f","SAM","19007","SAM_R19007",0.014,-1.67253869360615,0.2672453180712,0.161169463627276
"263","R55272","Anilios","grypus",-21.9,140,"round to point","m","SAM","55272","SAM_R55272",0.02,-1.38718501192703,-0.102501765059424,0.183063853257988
"264","R55460","Anilios","grypus",-26.25,139.236,"round to point","m","SAM","55460","SAM_R55460",0.021,-1.70302753048157,-0.144474368609598,0.17018767507124
"265","R14026","Anilios","guentheri",-17.85,129.63,"round to point, small spur","f","SAM","14026","SAM_R14026",0.02,-1.7903138729096,0.122831041440449,0.195842083097746
"266","R20439","Anilios","guentheri",-15.47,128.1,"round to point, small spur","f","SAM","20439","SAM_R20439",0.012,-1.94042353364228,0.378687175553533,0.25213472400675
"267","R53885","Anilios","guentheri",-17.83,125.37,"round to point, small spur","m","SAM","53885","SAM_R53885",0.02,-1.4007034769691,-0.0341449806617475,-0.0561951126496145
"268","R29495","Anilios","hamatus",-28.62,121.53,"round to point, small spur","m","SAM","29495","SAM_R29495",0.041,0.562282262184802,-0.323652160820405,0.18019569590583
"269","R50","Anilios","ligatus",-27.47,152.58,"taper to a point, pointy spur","f","SAM","50","SAM_R50",0.03,1.37264046821057,0.161661522619237,-0.0764176427347782
"270","R920","Anilios","ligatus",-29.43,147.98,"taper to a point, pointy spur","f","SAM","920","SAM_R920",0.027,1.48350577372766,0.302552280870825,-0.16767780259255
"271","R921","Anilios","ligatus",NA,NA,"taper to a point, pointy spur","f","SAM","921","SAM_R921",0.03,1.68710502062765,0.409889913909904,-0.1965195793788
"272","R3897","Anilios","ligatus",-19.6,146.83,"taper to a point, pointy spur","m","SAM","3897","SAM_R3897",0.043,1.31809022652359,-0.220863118824679,0.00623857542982117
"273","R31019","Anilios","ligatus",-30.18,149.93,"taper to a point, pointy spur","m","SAM","31019","SAM_R31019",0.04,1.45543793206915,-0.159912403472128,-0.0382287997214252
"274","R71387","Anilios","ligatus",-19.216,145.428,"taper to a point, pointy spur","m","SAM","71387","SAM_R71387",0.039,1.5476022936657,-0.0531070621426529,-0.0601732978982563
"275","R65743","Anilios","margaretae",-30.17,131.58,"taper to a point","m","SAM","65743","SAM_R65743",0.02,-1.46991732266317,0.119166780678842,0.17525881301391
"276","R67495","Anilios","margaretae",-29.402,130.74,"taper to a point","u","SAM","67495","SAM_R67495",0.016,-1.74137275880347,0.120315137373757,0.313372813350946
"277","R70458","Ramphotyphlops","multillineatus",-6.91,144.96,"cone shape, taper to a point","m","SAM","70458","SAM_R70458",0.04,-0.353324129980214,-0.387125506497768,0.0450015336028315
"278","R918","Anilios","nigrescens",-37.08,149.9,"taper to a point, pointy spur","f","SAM","918","SAM_R918",0.026,-0.0480766609813141,-0.0210144285537408,0.0425415434682535
"279","R919","Anilios","nigrescens",-37.08,149.9,"taper to a point, pointy spur","f","SAM","919","SAM_R919",0.02,0.115459923545954,0.350016750155897,-0.214769770655629
"280","R31021","Anilios","nigrescens",-28.8,152.08,"taper to a point, pointy spur","f","SAM","31021","SAM_R31021",0.029,0.367636132558671,-0.00706512003849825,0.0765830047365461
"281","R34713","Anilios","nigrescens",-33.33,151.32,"taper to a point, pointy spur","f","SAM","34713","SAM_R34713",0.02,-0.108597467679642,0.101298903377419,-0.040439493775741
"282","R39127","Anilios","nigrescens",-30.88,151.2,"taper to a point, pointy spur","f","SAM","39127","SAM_R39127",0.018,0.639284300806868,0.504853221443647,-0.0166649203325811
"283","R3932","Anilios","nigrescens",-33.95,151.13,"taper to a point, pointy spur","m","SAM","3932","SAM_R3932",0.04,0.377872876413002,-0.432216358351624,-0.0286915196727862
"284","R31022","Anilios","nigrescens",-28.8,152.08,"taper to a point, pointy spur","m","SAM","31022","SAM_R31022",0.025,0.239101365366357,0.11683486380523,0.102609940205816
"285","R31023","Anilios","nigrescens",-29.65,152.05,"taper to a point, pointy spur","m","SAM","31023","SAM_R31023",0.05,0.638547880930246,-0.476320140708158,0.0171666462932936
"286","R31024","Anilios","nigrescens",-29.65,152.05,"taper to a point, pointy spur","m","SAM","31024","SAM_R31024",0.035,0.381013814366741,-0.250929830711345,0.0695832274391589
"287","R67932","Anilios","nigrescens",-33.09,151.24,"taper to a point, pointy spur","m","SAM","67932","SAM_R67932",0.03,0.293768730669877,-0.203647194071968,-0.185691989425942
"288","R923","Anilios","pinguis",-33.68,117.55,"sharp pointy","f","SAM","923","SAM_R923",0.033,1.84998563554067,0.187286932901217,0.0282810619566748
"289","R927","Sundatyphlops","polygrammicus",NA,NA,"taper to a point","m","SAM","927","SAM_R927",0.05,0.544421804124011,-0.563897263338071,-0.136288765210078
"290","R200","Anilios","proximus",-25.6,152.6,"taper to a point, pointy spur","f","SAM","200","SAM_R200",0.017,0.632917427218552,0.586743278430163,-0.0200191779937486
"291","R916","Anilios","proximus",-32.8,149.97,"taper to a point, pointy spur","f","SAM","916","SAM_R916",0.02,0.884047085260655,0.567706311154352,0.00793251213505357
"292","R922","Anilios","proximus",NA,NA,"taper to a point, pointy spur","f","SAM","922","SAM_R922",0.011,1.08569689522346,1.13642802423413,-0.169375915650152
"293","R22713","Anilios","proximus",-25.32,148.83,"taper to a point, pointy spur","f","SAM","22713","SAM_R22713",0.02,1.25837180163578,0.417921063060913,-0.306647388000463
"294","R47090","Anilios","silvia",-25.95,153.13,"taper to a point","u","SAM","47090","SAM_R47090",0.02,0.492797744657529,0.39672316897203,-0.0619195194212572
"295","R47349","Anilios","silvia",-25.95,153.13,"taper to a point","u","SAM","47349","SAM_R47349",0.04,0.562616923869606,-0.372647077882242,0.643169627869045
"296","R64769","Acutotyphlops","subocularis",-5.446,151.464,"taper to a point, pointy spur","u","SAM","64769","SAM_R64769",0.049,1.3358267114509,-0.289179002463328,0.566501803428005
"297","R64770","Acutotyphlops","subocularis",-5.45,151.46,"taper to a point, pointy spur","u","SAM","64770","SAM_R64770",0.07,0.660303449896669,-0.879011752505861,-0.268049339249902
"298","R1272C","Anilios","tovelli",-12.45,130.83,"taper to a point","f","SAM","1272C","SAM_R1272C",0.047,1.43033355472953,-0.250715571129778,0.27658871172918
"299","R1272A","Anilios","tovelli",-12.45,130.83,"taper to a point","u","SAM","1272A","SAM_R1272A",0.05,1.52004426745357,-0.215304673009451,0.349399983217537
"300","R54430","Anilios","unguirostris",-17.435,141.276,"taper to a point","m","SAM","54430","SAM_R54430",0.019,-0.472632286103305,0.233501434423427,0.338077423217062
"301","R904","Anilios","waitii",-32.12,116.93,"tapers to a point, small spur","f","SAM","904","SAM_R904",0.02,-0.85525994839379,0.171819673589346,-0.137203161596306
"302","R102560","Anilios","ammodytes",-23.096,116.01,"taper point","f","WAM","102560","WAM_R102560",0.019,-0.70236619975683,0.166320953415114,-0.0476246429905274
"303","R102550","Anilios","ammodytes",-23.08,115.79,"taper point","f","WAM","102550","WAM_R102550",0.02,-0.275271390414219,0.286652840775891,0.0270689796737871
"304","R108831","Anilios","ammodytes",-20.783,116.85,"taper point","f","WAM","108831","WAM_R108831",0.02,-0.47499002430377,0.189746272793386,-0.032042466173465
"305","R124837","Anilios","ammodytes",-20.42,118.83,"taper point","m","WAM","124837","WAM_R124837",0.06,0.278754208226914,-0.768893566844888,-0.21788301173001
"306","R110290","Anilios","ammodytes",-22.676,119.841,"taper point","m","WAM","110290","WAM_R110290",0.045,-0.089858887667679,-0.587269903998185,0.0353884902138407
"307","R102496","Anilios","ammodytes",-23.38,115.88,"taper point","f","WAM","102496","WAM_R102496",0.02,-0.856173127610797,0.276526153367911,0.0891524485128698
"308","R111957","Anilios","ammodytes",-22.701,120.737,"taper point","f","WAM","111957","WAM_R111957",0.026,-0.622379009925323,-0.124264499443851,-0.106096429871223
"309","R110035","Anilios","ammodytes",-20.79,116.86,"taper point","m","WAM","110035","WAM_R110035",0.03,0.0901931240623201,-0.275684383508365,-0.103876844766508
"310","R100453","Anilios","ammodytes",-22.329,122.064,"taper point","f","WAM","100453","WAM_R100453",0.013,-1.35059813754854,0.365665082464884,-0.00512085373827439
"311","R111995","Anilios","ammodytes",-22.61,120.73,"taper point","f","WAM","111995","WAM_R111995",0.02,-0.666663577653051,0.0280994302668458,-0.0106519451566263
"312","R135344","Anilios","australis",-32.683,115.7,"taper point","m","WAM","135344","WAM_R135344",0.044,1.24756454072074,-0.248031252604069,0.176135437010436
"313","R135343","Anilios","australis",-32.68,115.7,"taper point","f","WAM","135343","WAM_R135343",0.03,0.773222194440399,0.237125283433655,0.143981853033196
"314","R140516","Anilios","australis",-30.614,115.251,"taper point","m","WAM","140516","WAM_R140516",0.047,1.24957188327576,-0.310316938475899,0.150637994175281
"315","R141875","Anilios","australis",-33.65,115.42,"taper point","m","WAM","141875","WAM_R141875",0.04,1.30453250501834,-0.191313780059935,0.21401349250375
"316","R136224","Anilios","australis",-33.086,117.697,"taper point","f","WAM","136224","WAM_R136224",0.032,0.880490915027663,0.002460009440037,0.24460416412704
"317","R137473","Anilios","australis",-33.55,115.85,"taper point","f","WAM","137473","WAM_R137473",0.03,0.586571184612816,0.130149729444858,0.307390205787138
"318","R134937","Anilios","australis",-31.4,116.15,"taper point","f","WAM","134937","WAM_R134937",0.026,0.656099624436404,0.170448663426904,0.143390468967491
"319","R134504","Anilios","australis",-32.69,119.34,"taper point","f","WAM","134504","WAM_R134504",0.03,0.910015283553669,-0.0720694427919564,-0.0666406050106607
"320","R135248","Anilios","australis",-33.85,114.983,"taper point","f","WAM","135248","WAM_R135248",0.028,0.706255986450373,0.00866180625422572,0.200139872367134
"321","R133502","Anilios","australis",-31.99,117.02,"taper point","f","WAM","133502","WAM_R133502",0.03,1.06302061766725,0.263421955363133,0.0529057853475085
"322","R134917","Anilios","australis",-31.45,116.273,"point","m","WAM","134917","WAM_R134917",0.05,1.29619227235126,-0.381122729490961,0.0745102002340363
"323","R135228","Anilios","australis",-32.16,121.74,"point","m","WAM","135228","WAM_R135228",0.04,1.00489113737298,-0.118770181394189,0.171098239551918
"324","R108805","Anilios","diversus",-18.94,128.784,"taper point","m","WAM","108805","WAM_R108805",0.04,-0.802778894473826,-0.639816511599005,-0.0168004007300368
"325","R112027","Anilios","diversus",-17.06,122.72,"taper point","f","WAM","112027","WAM_R112027",0.02,-0.917094311975102,0.0901778247434542,0.130693946638423
"326","R119543","Anilios","diversus",-15.783,128.783,"taper point","f","WAM","119543","WAM_R119543",0.023,-0.584093741084159,0.038499121789998,0.157766915564053
"327","R119542","Anilios","diversus",-15.78,128.78,"taper point","f","WAM","119542","WAM_R119542",0.02,-0.647760777879965,0.226603248698866,-0.124537792763288
"328","R152275","Anilios","diversus",-18.147,124.528,"taper point","m","WAM","152275","WAM_R152275",0.035,-0.288297207895103,-0.446617048622618,-0.215433427235583
"329","R168514","Anilios","diversus",-17.59,122.17,"taper point","m","WAM","168514","WAM_R168514",0.03,-0.302362050583687,-0.158541314632825,0.170627611545662
"330","R152274","Anilios","diversus",-18.148,124.551,"taper point","m","WAM","152274","WAM_R152274",0.03,-0.544549343206134,-0.312023871231964,-0.0707604649777188
"331","R166605","Anilios","diversus",-17.61,127.95,"taper point","m","WAM","166605","WAM_R166605",0.03,0.0634631862338118,-0.208859630950822,0.232226177045301
"332","R151749","Anilios","ganei",-22.017,118.982,"point","m","WAM","151749","WAM_R151749",0.033,0.482473289626563,-0.1405127849128,-0.125592973689389
"333","R135625","Anilios","ganei",-23.07,118.93,"point","m","WAM","135625","WAM_R135625",0.03,0.648372094074869,-0.00824908275775379,-0.208583948958023
"334","R162129","Anilios","ganei",-22.789,116.571,"point","m","WAM","162129","WAM_R162129",0.023,0.49375112498347,0.226534305803388,-0.112194547985453
"335","R164440","Anilios","ganei",-23.33,119.86,"point","m","WAM","164440","WAM_R164440",0.03,0.499496362612564,0.0165779829216848,0.0355607503230719
"336","R165000","Anilios","ganei",-22.135,119.024,"point","m","WAM","165000","WAM_R165000",0.028,1.34437206313344,0.293463268166215,0.201949813471859
"337","R156328","Anilios","ganei",-22.23,118.98,"point","m","WAM","156328","WAM_R156328",0.02,0.611471331095282,0.266735280523443,-0.0263501268450467
"338","R170702","Anilios","ganei",-21.952,116.488,"point","f","WAM","170702","WAM_R170702",0.021,0.480843551333205,0.327240303506492,-0.1202618898641
"339","R170252","Anilios","ganei",-23.28,118.1,"point","m","WAM","170252","WAM_R170252",0.03,0.39499041272274,0.133814839133955,0.0758954713459528
"340","R172319","Anilios","ganei",-22.287,117.96,"point","f","WAM","172319","WAM_R172319",0.016,-0.482634818875107,0.409530583098957,-0.366337455772054
"341","R170062","Anilios","ganei",-21.06,118.91,"point","m","WAM","170062","WAM_R170062",0.02,0.374897044397113,0.189308181757408,0.0730264480007579
"342","R124835","Anilios","ganei",-23.292,119.467,"point","f","WAM","124835","WAM_R124835",0.021,0.128330599128181,0.25980937682222,-0.224820993230928
"343","R102111","Anilios","ganei",-21.65,116.32,"point","f","WAM","102111","WAM_R102111",0.02,0.437535744913546,0.43785400912895,0.149335055917008
"344","R129571","Anilios","ganei",-23.35,119.567,"point","f","WAM","129571","WAM_R129571",0.03,0.400573315217394,-0.0244619415033046,0.0160044656245001
"345","R145759","Anilios","grypus",-21.94,118.96,"black taper point","m","WAM","145759","WAM_R145759",0.03,-1.74706107877692,-0.615113139033162,-0.106799256973487
"346","R146673","Anilios","grypus",-21.06,118.75,"black taper point","f","WAM","146673","WAM_R146673",0.013,-2.41442852781422,0.115776794177619,-0.397875573257664
"347","R176517","Anilios","grypus",-22.21,114.08,"black taper point","f","WAM","176517","WAM_R176517",0.04,-1.08429767794263,-0.756903236110724,-0.00147324171398673
"348","R173075","Anilios","grypus",-23.278,122.819,"black taper point","m","WAM","173075","WAM_R173075",0.052,-1.22713447474477,-0.999173010224485,0.0762347386780442
"349","R172603","Anilios","grypus",-22.69,115.41,"black taper point","f","WAM","172603","WAM_R172603",0.01,-1.47655288077897,0.461849296975583,-0.20074044649653
"350","R161318","Anilios","grypus",-21.408,120.071,"point","f","WAM","161318","WAM_R161318",0.012,-1.78996651748411,0.370739329453378,0.0378359459935868
"351","R163084","Anilios","grypus",-23.05,119.18,"point","f","WAM","163084","WAM_R163084",0.03,-1.55421835446286,-0.333765447555391,0.0737259904845462
"352","R163640","Anilios","grypus",-22.218,117.522,"point","f","WAM","163640","WAM_R163640",0.019,-1.83178379068231,-0.112743494449375,0.128204288696486
"353","R138013","Anilios","guentheri",-15.78,128.73,"point","f","WAM","138013","WAM_R138013",0.02,-1.64598219539127,0.0957282324456869,-0.0894780182946999
"354","R61353","Anilios","guentheri",-16.283,128.8,"point","m","WAM","61353","WAM_R61353",0.031,-0.747999882689864,-0.358328716157521,-0.139498115372237
"355","R119987","Anilios","guentheri",-15.83,128.03,"point","f","WAM","119987","WAM_R119987",0.01,-1.84269193261525,0.179154915752645,0.140838339384427
"356","R137468","Anilios","guentheri",-15.783,128.733,"point","f","WAM","137468","WAM_R137468",0.022,-0.997363944793187,-0.0540162479119214,-0.0258066514655373
"357","R108431","Anilios","guentheri",-17.23,128.1,"point","f","WAM","108431","WAM_R108431",0.02,-1.5591887425438,0.0332446119810946,-0.0219976406717708
"358","R152714","Anilios","guentheri",-17.39,128.255,"point","f","WAM","152714","WAM_R152714",0.022,-0.623862409868806,-0.000470395191025798,-0.108788406172731
"359","R70638","Anilios","guentheri",-16.6,128.46,"point","f","WAM","70638","WAM_R70638",0.01,-1.30559129863755,0.220323596610401,-0.094495361894428
"360","R97337","Anilios","hamatus",-28.533,115.517,"taper point","f","WAM","97337","WAM_R97337",0.023,0.327398582979757,0.170180614487119,0.00813937017060354
"361","R81525","Anilios","hamatus",-28.43,122.95,"taper point","f","WAM","81525","WAM_R81525",0.03,0.30337755985274,0.0367703685299486,0.0226242397597903
"362","R101234","Anilios","hamatus",-28.783,115.75,"taper point","f","WAM","101234","WAM_R101234",0.022,0.75453954894205,0.336230545398328,0.088616810078374
"363","R72899","Anilios","hamatus",-29.26,122.4,"taper point","m","WAM","72899","WAM_R72899",0.03,0.208747109603168,-0.0752071246980014,0.223167544271722
"364","R96639","Anilios","hamatus",-28.933,116.283,"taper point","m","WAM","96639","WAM_R96639",0.046,0.928843936727139,-0.383941359320027,-0.0492765985741036
"365","R110955","Anilios","hamatus",-27.25,120.76,"taper point","m","WAM","110955","WAM_R110955",0.04,0.905019468787883,-0.189669809424119,0.0490090995536489
"366","R111862","Anilios","hamatus",-23.536,120.326,"taper point","f","WAM","111862","WAM_R111862",0.021,0.289359351799875,0.298425785338398,-0.0657818155043296
"367","R111763","Anilios","hamatus",-23.37,120.46,"taper point","m","WAM","111763","WAM_R111763",0.04,0.65218362512923,-0.230159712172785,0.0775418377225953
"368","R110956","Anilios","hamatus",-26.97,120.615,"taper point","f","WAM","110956","WAM_R110956",0.027,0.606296558160922,0.0801380031182527,0.174044037425401
"369","R110954","Anilios","hamatus",-26.98,120.64,"taper point","m","WAM","110954","WAM_R110954",0.04,0.92829388801562,-0.288470607714849,0.209570309189915
"370","R69572","Anilios","hamatus",-22.633,118.1,"point","f","WAM","69572","WAM_R69572",0.022,0.00568438188859489,0.121704412309333,-0.104001145298896
"371","R66323","Anilios","hamatus",-23.2,118.83,"point","m","WAM","66323","WAM_R66323",0.04,0.531031591314772,-0.201542474996192,0.170679390661467
"372","R146959","Anilios","howi",-14.3,126.63,"taper point","f","WAM","146959","WAM_R146959",0.01,-1.92075668821216,0.0729389992633961,0.0108638405936835
"373","R146381","Anilios","howi",-14.3,126.633,"taper point","f","WAM","146381","WAM_R146381",0.018,-0.885598144374267,0.202781305905395,0.282547336854865
"374","R141536","Anilios","howi",-14.3,126.63,"taper point","f","WAM","141536","WAM_R141536",0.02,-1.10429318759435,0.0822181653270445,-0.0347835662351724
"375","R77226","Anilios","howi",-14.567,125.849,"point","m","WAM","77226","WAM_R77226",0.031,-0.649832253688114,-0.395993843768158,-0.338169763324644
"376","R168385","Anilios","kimberleyensis",-16.09,123.55,"point","m","WAM","168385","WAM_R168385",0.02,0.144136850517016,0.363034983089367,0.0604750991592371
"377","R168371","Anilios","kimberleyensis",-16.035,123.523,"point","m","WAM","168371","WAM_R168371",0.031,0.211088401569707,-0.116291842963916,0.0883120106296042
"378","R168370","Anilios","kimberleyensis",-16.04,123.53,"point","m","WAM","168370","WAM_R168370",0.03,0.299763723095423,-0.0388973823211919,-0.0277749743200708
"379","R168382","Anilios","kimberleyensis",-16.043,123.536,"point","m","WAM","168382","WAM_R168382",0.037,0.574835025040186,-0.212986985230402,-0.0319569143539417
"380","R125981","Anilios","kimberleyensis",-15.47,128.1,"point","f","WAM","125981","WAM_R125981",0.02,-1.2112770656284,-0.12277979793264,-0.125689072044181
"381","R168381","Anilios","kimberleyensis",-16.074,123.549,"point","f","WAM","168381","WAM_R168381",0.019,0.351165866620067,0.496896238414364,0.130033903118375
"382","R168365","Anilios","kimberleyensis",-16.04,123.53,"point","f","WAM","168365","WAM_R168365",0.02,0.0222740098568102,0.504246182273775,0.297915248372148
"383","R168404","Anilios","kimberleyensis",-16.076,123.551,"point","f","WAM","168404","WAM_R168404",0.019,0.251432630091395,0.381896618434206,0.00418688991494368
"384","R168461","Anilios","kimberleyensis",-13.88,126.57,"point","m","WAM","168461","WAM_R168461",0.02,-0.127038369152432,0.244392487879598,0.178801949200147
"385","R133193","Anilios","kimberleyensis",-16.132,123.763,"point","f","WAM","133193","WAM_R133193",0.023,0.0824508503794189,0.190776610953595,0.0638142842374482
"386","R168363","Anilios","kimberleyensis",-16.09,123.55,"point","f","WAM","168363","WAM_R168363",0.02,0.200393681768281,0.536858008291476,0.00399681242072641
"387","R41456","Anilios","kimberleyensis",-14.533,125.133,"point","f","WAM","41456","WAM_R41456",0.021,-0.67080039719406,0.100910452987039,-0.0731529399511423
"388","R55038","Anilios","leptosoma",-25.73,114.28,"point","m","WAM","55038","WAM_R55038",0.04,-1.38764930365206,-0.595089492378296,0.411017515060688
"389","R125963","Anilios","leptosoma",-27.7,114.2,"point","m","WAM","125963","WAM_R125963",0.041,-1.28882368369448,-0.779869663397628,0.00581099562693134
"390","R125964","Anilios","leptosoma",-27.7,114.2,"point","m","WAM","125964","WAM_R125964",0.04,-0.94056599588172,-0.642567355102678,0.125792818455406
"391","R55039","Anilios","leptosoma",-25.733,114.283,"point","m","WAM","55039","WAM_R55039",0.045,-0.750379797513403,-0.709785981710745,0.268746248918437
"392","R34649","Anilios","leptosoma",-27.72,114.17,"point","f","WAM","34649","WAM_R34649",0.02,-1.9591579865113,-0.21782573986802,-0.628646807844766
"393","R119241","Anilios","leptosoma",-27.7,114.167,"point","f","WAM","119241","WAM_R119241",0.017,-1.93371109254618,-0.0285052317651071,-0.116028146215857
"394","R51097","Anilios","leptosoma",-26.97,115.97,"point","f","WAM","51097","WAM_R51097",0.02,-1.69946620053574,0.126034654503849,0.0824726362929102
"395","R135647","Anilios","leptosoma",-27.39,114.753,"point","f","WAM","135647","WAM_R135647",0.021,-1.6184610135674,-0.152929477928016,0.0239686028761738
"396","R57545","Anilios","leptosoma",-28.08,115.3,"point","f","WAM","57545","WAM_R57545",0.02,-1.73625271026705,-0.0516053212526464,0.170652383593882
"397","R146456","Anilios","leptosoma",-28.033,114.667,"point","f","WAM","146456","WAM_R146456",0.025,-1.30309684468735,-0.26396577376755,0.135896637672094
"398","R146454","Anilios","leptosoma",-28.03,114.67,"point","f","WAM","146454","WAM_R146454",0.02,-1.560027931815,-0.251463702653352,-0.098388020526583
"399","R29623","Anilios","leptosoma",-27.55,114.467,"point","m","WAM","29623","WAM_R29623",0.037,-1.71973504453918,-0.721638130081245,0.103559786993226
"400","R168870","Anilios","ligatus",-15.67,128.69,"point","m","WAM","168870","WAM_R168870",0.05,1.48909219659633,-0.256074845569357,-0.215861186616776
"401","R141065","Anilios","ligatus",-15.767,128.733,"point","f","WAM","141065","WAM_R141065",0.025,0.942512286663445,0.235712567406217,-0.23388579765032
"402","R75510","Anilios","ligatus",-16.58,128.8,"point","f","WAM","75510","WAM_R75510",0.03,0.954875156519395,0.127352839245638,-0.0369504325075156
"403","R22357","Anilios","ligatus",-15.65,128.7,"point",NA,"WAM","22357","WAM_R22357",0.038,1.81978822888853,0.0458832554481686,0.118838821556439
"404","R99775","Anilios","ligatus",-17.12,125.17,"point","m","WAM","99775","WAM_R99775",0.05,1.59506231731423,-0.28079913461346,0.0603819401556099
"405","R120049","Anilios","longissimus",-20.9,115.367,"point","f","WAM","120049","WAM_R120049",0.015,-2.69775484393385,-0.0947915023383111,-0.011970779896336
"406","R163269","Anilios","margaretae",-28.69,125.85,"taper point",NA,"WAM","163269","WAM_R163269",0.01,-1.09196226211119,0.697691163651188,0.312515075521389
"407","R15710","Anilios","margaretae",-27.417,124.3,"point",NA,"WAM","15710","WAM_R15710",0.013,-1.76905753811464,0.297844586854694,0.232042644677016
"408","R1341","Anilios","micromma",-17.87,125.43,"point",NA,"WAM","1341","WAM_R1341",0.03,-0.746471054040744,-0.122371992650399,0.024674022325053
"409","R146400","Anilios","obtusifrons",-27.922,114.163,"point","f","WAM","146400","WAM_R146400",0.025,-1.08797425000838,-0.234383834936603,0.0453056918146782
"410","R89435","Anilios","obtusifrons",-27.85,114.1,"point","m","WAM","89435","WAM_R89435",0.05,-1.43409555731566,-0.869523047381386,0.395075982012965
"411","R129778","Anilios","obtusifrons",-27.898,114.167,"point","f","WAM","129778","WAM_R129778",0.021,-1.18871942143021,-0.0283342408405303,0.0819357093320124
"412","R139387","Anilios","pilbarensis",-21.23,120.36,"taper point","m","WAM","139387","WAM_R139387",0.04,0.451914547449495,-0.393168446125349,0.0853393543972368
"413","R154868","Anilios","pilbarensis",-20.654,120.791,"taper point","f","WAM","154868","WAM_R154868",0.026,0.101817651199176,-0.00566259147577155,-0.147051752447108
"414","R110744","Anilios","pilbarensis",-22.57,117.19,"taper point","f","WAM","110744","WAM_R110744",0.03,-0.0384380718302725,-0.0817421691651547,0.229308087445732
"415","R110734","Anilios","pilbarensis",-22.618,117.181,"taper point","m","WAM","110734","WAM_R110734",0.046,0.539351327994917,-0.472341105108705,0.0305254276622325
"416","R110943","Anilios","pilbarensis",-21.7,116.05,"taper point","f","WAM","110943","WAM_R110943",0.03,0.0519099434912926,-0.161360962880027,-0.155218471375772
"417","R110733","Anilios","pilbarensis",-22.613,117.188,"taper point","f","WAM","110733","WAM_R110733",0.025,0.316392491755325,0.0801636011932206,-0.0848195613558228
"418","R112734","Anilios","pilbarensis",-21.27,120.46,"taper point","m","WAM","112734","WAM_R112734",0.04,0.339209422211827,-0.347399635758334,-0.0379583043598893
"419","R110940","Anilios","pilbarensis",-21.671,115.962,"taper point","f","WAM","110940","WAM_R110940",0.03,-0.176092625658442,-0.166725198526019,0.190444671593984
"420","R156309","Anilios","pilbarensis",-22.23,118.98,"taper point","f","WAM","156309","WAM_R156309",0.02,0.0161331773389781,0.388931453006793,-0.258327419074045
"421","R163218","Anilios","pilbarensis",-22.121,117.741,"taper point","m","WAM","163218","WAM_R163218",0.043,0.549051377083571,-0.400165443468476,0.172432391378756
"422","R166182","Anilios","pilbarensis",-21.95,120.12,"taper point","m","WAM","166182","WAM_R166182",0.05,0.684103868032686,-0.473103082715148,0.0716428033745017
"423","R172600","Anilios","pilbarensis",-22.028,117.999,"taper point","m","WAM","172600","WAM_R172600",0.033,0.520733180555641,-0.108715006488373,0.19366783177161
"424","R166501","Anilios","pilbarensis",-21.68,121.23,"taper point","m","WAM","166501","WAM_R166501",0.04,0.0500143792892728,-0.47823640558746,0.202765953637816
"425","R90864","Anilios","pilbarensis",-21.612,118.956,"point","m","WAM","90864","WAM_R90864",0.043,0.738649009348435,-0.33494064915292,0.0895648296079094
"426","R125664","Anilios","pinguis",-31.57,115.71,"pointy spur","m","WAM","125664","WAM_R125664",0.03,1.8763896934712,0.246773414793524,-0.0233015695708071
"427","R96220","Anilios","pinguis",-32.05,115.95,"pointy spur","m","WAM","96220","WAM_R96220",0.056,2.35580607767803,-0.264915885649453,-0.0565776091537605
"428","R82627","Anilios","pinguis",-31.98,115.97,"pointy spur","f","WAM","82627","WAM_R82627",0.05,1.9106388837733,-0.279164888622783,-0.0145034915194584
"429","R146995","Anilios","pinguis",-31.933,116.033,"poin","f","WAM","146995","WAM_R146995",0.034,1.56822262490865,0.0967926575176468,-0.301106906732731
"430","R173032","Anilios","pinguis",-32.64,119.76,"point","f","WAM","173032","WAM_R173032",0.04,1.99531037345396,0.160857988458201,0.0237076934146867
"431","R172519","Anilios","pinguis",-32.65,119.767,"point","f","WAM","172519","WAM_R172519",0.035,1.83511515210396,0.140545142365631,0.0897346849679295
"432","R28630","Anilios","pinguis",-33.83,117.15,"point","f","WAM","28630","WAM_R28630",0.02,1.29709280125354,0.415934783855096,-0.354841567599844
"433","R37465","Anilios","pinguis",-31.383,116.083,"point","m","WAM","37465","WAM_R37465",0.057,1.93744377305528,-0.345089652752367,0.0640755811888737
"434","R29754","Anilios","pinguis",-31.98,116.07,"point","f","WAM","29754","WAM_R29754",0.03,1.91041603500619,0.156724227801173,-0.125386270850278
"435","R55917","Anilios","pinguis",-31.917,116.05,"point","m","WAM","55917","WAM_R55917",0.041,2.18370965393204,0.0683132856891035,0.327835746103883
"436","R119900","Anilios","splendidus",-22.02,113.93,"point","f","WAM","119900","WAM_R119900",0.03,0.488609730355703,0.063967813527805,0.110663994124623
"437","R115121","Anilios","systenos",-28.1,115.633,"point","m","WAM","115121","WAM_R115121",0.037,-1.95412001266401,-0.818884814509228,-0.154718171531563
"438","R114894","Anilios","systenos",-28.77,114.62,"point","m","WAM","114894","WAM_R114894",0.05,-1.41818474888484,-0.945485117116693,0.0277064053450848
"439","R13462","Anilios","systenos",-28.4,114.583,"point","m","WAM","13462","WAM_R13462",0.039,-0.46808494294027,-0.520910543880277,0.298686194330275
"440","R114892","Anilios","systenos",-28.77,114.62,"point","m","WAM","114892","WAM_R114892",0.04,-1.55003404317157,-0.796899891065894,0.128922634612308
"441","R113398","Anilios","systenos",NA,NA,"point","m","WAM","113398","WAM_R113398",0.039,-1.09607012966449,-0.706428811817207,-0.0195225736732437
"442","R114893","Anilios","systenos",-28.77,114.62,"point","m","WAM","114893","WAM_R114893",0.04,-1.24510265969916,-0.751317235144082,0.0579038522635336
"443","R1734","Anilios","systenos",-28.717,114.817,"point","f","WAM","1734","WAM_R1734",0.02,-1.30762539940366,-0.0221316212197975,0.208160461393543
"444","R23560","Anilios","tovelli",-12.35,130.87,"taper point","f","WAM","23560","WAM_R23560",0.03,0.878060424309203,0.0343353264852835,0.136543475825988
"445","R146051","Anilios","troglodytes",-16.75,123.985,"taper point","f","WAM","146051","WAM_R146051",0.013,-1.21083816260894,0.449661086839399,-0.333684329551518
"446","R146048","Anilios","troglodytes",-16.75,123.99,"taper point","m","WAM","146048","WAM_R146048",0.02,-0.259342450096097,0.260218925312596,-0.097995747453176
"447","R172637","Anilios","troglodytes",-16.323,124.047,"taper point","f","WAM","172637","WAM_R172637",0.013,-0.926552677506511,0.485235517626399,0.0210765042327422
"448","R51043","Anilios","troglodytes",-17.62,125.23,"point","f","WAM","51043","WAM_R51043",0.01,-1.69290835809907,0.341627003761804,-1.58189829067984e-05
"449","R75461","Anilios","unguirostris",-16.583,128.8,"pointy","f","WAM","75461","WAM_R75461",0.015,-0.716218246865152,0.459164382645301,0.124840856931335
"450","R70725","Anilios","unguirostris",-16.63,125.92,"pointy","f","WAM","70725","WAM_R70725",0.01,-0.989834000979591,0.440683289276647,-0.0842983744451812
"451","R117861","Anilios","unguirostris",-17.663,124.933,"pointy","m","WAM","117861","WAM_R117861",0.016,-0.291179674686201,0.424890347853022,0.262338155624414
"452","R163525","Anilios","unguirostris",-17.52,126.1,"point","m","WAM","163525","WAM_R163525",0.03,-0.687737379242987,-0.244299082327322,0.128455673780125
"453","R163527","Anilios","unguirostris",-17.574,126.076,"point","f","WAM","163527","WAM_R163527",0.013,-0.601893252078667,0.57495965344482,0.0718971955735995
"454","R146958","Anilios","unguirostris",-14.3,126.63,"point",NA,"WAM","146958","WAM_R146958",0.02,0.350377130878064,0.513148499680136,0.456965185251406
"455","R73538","Anilios","unguirostris",-16.433,126.433,"point","m","WAM","73538","WAM_R73538",0.032,0.290563002401247,-0.176324238787437,0.0203154983423851
"456","R163526","Anilios","unguirostris",-17.52,126.1,"point","f","WAM","163526","WAM_R163526",0.01,-1.24002383465279,0.390878102627155,-0.0530836952320201
"457","R163528","Anilios","unguirostris",-17.517,126.1,"point","f","WAM","163528","WAM_R163528",0.011,-1.26249278486084,0.54302217396455,-0.034122683830332
"458","R83196","Anilios","unguirostris",-15.77,128.73,"point","f","WAM","83196","WAM_R83196",0.01,-1.00219650795448,0.427388463886273,-0.176898689670021
"459","R99771","Anilios","unguirostris",-17.288,125.368,"point","f","WAM","99771","WAM_R99771",0.01,-1.05806010844016,0.822036078292864,0.102417415010028
"460","R131661","Anilios","unguirostris",-14.22,126.63,"point","m","WAM","131661","WAM_R131661",0.03,0.072224541590518,-0.0146808087989839,0.102282254096702
"461","R136761","Anilios","waitii",-27.613,119.57,"point","m","WAM","136761","WAM_R136761",0.029,-1.41899574316947,-0.431555364549136,0.0366682546361819
"462","R135251","Anilios","waitii",-26.58,119.92,"point","m","WAM","135251","WAM_R135251",0.03,-1.05645328141709,-0.401068030386324,-0.0996779278745904
"463","R136696","Anilios","waitii",-29.923,121.141,"point","f","WAM","136696","WAM_R136696",0.011,-1.94098373607432,0.443694574991147,0.223539549335015
"464","R136727","Anilios","waitii",-26.27,121.5,"point","f","WAM","136727","WAM_R136727",0.02,-1.77515582905391,0.0173159081687498,-0.14674148789339
"465","R140423","Anilios","waitii",-28.372,120.583,"point","f","WAM","140423","WAM_R140423",0.014,-1.55899044931073,0.238243148413549,-0.14638643232154
"466","R135604","Anilios","waitii",-28.82,122.3,"point","f","WAM","135604","WAM_R135604",0.01,-1.70481611157146,0.229753689121279,-0.0609021613516933
"467","R136751","Anilios","waitii",-26.262,121.511,"point","f","WAM","136751","WAM_R136751",0.014,-1.55689703335328,0.324039893546647,0.149408694355932
"468","R136315","Anilios","waitii",-26.27,121.5,"point","f","WAM","136315","WAM_R136315",0.01,-1.62978116771725,0.627590122210279,-0.0377788411215553
"469","R132114","Anilios","waitii",-32.933,117.183,"point","m","WAM","132114","WAM_R132114",0.031,-1.02095457975086,-0.43510147566131,-0.0547837997377148
"470","R104317","Anilios","waitii",-28.67,114.6,"point","m","WAM","104317","WAM_R104317",0.03,-1.41897223103204,-0.466014908293316,0.0373114696413375
"471","R26839","Anilios","yampiensis",-16.15,123.75,"point",NA,"WAM","26839","WAM_R26839",0.016,-0.239420281744902,0.503599518223532,0.239906922721387
"472","R171667","Anilios","zonula",-15.95,124.56,"point","f","WAM","171667","WAM_R171667",0.03,-0.525005665419835,-0.247336393026894,-0.20781492852959
"473","R106250","Anilios","zonula",-15.27,124.558,"point","f","WAM","106250","WAM_R106250",0.019,-1.04212044844335,0.0461640373540404,0.00511834712308983
