﻿pairID,V1,V2,other
40,grypusET,affinis,sister
42,tovelli,broomi,sister
43,ammodytes,diversus,sister
45,margaretae,bituberculatus,sister
51,ganei,ligatus,sister
52,troglodytes,kimberleyensis,sister
53,unguirostris,yirrikalae,sister
60,hamatus,endoterus,sister
61,waitii,centralis,sister
62,bicolor,pinguis,sister
63,grypusW,leptosoma,sister
40,grypusET,guentheri,non-sister1
42,tovelli,ammodytes,non-sister1
43,ammodytes,broomi,non-sister1
45,margaretae,wiedii,non-sister1
51,ganei,ligatusE,non-sister1
52,troglodytes,torresianus,non-sister1
53,unguirostris,nigrescens,non-sister1
60,hamatus,pilbarensis,non-sister1
61,waitii,australis,non-sister1
62,bicolor,australis,non-sister1
63,grypusW,silvia,non-sister1
40,affinis,guentheri,non-sister1
42,broomi,ammodytes,non-sister1
43,diversus,broomi,non-sister1
45,bituberculatus,wiedii,non-sister1
51,ligatus,ligatusE,non-sister1
52,kimberleyensis,torresianus,non-sister1
53,yirrikalae,nigrescens,non-sister1
60,endoterus,pilbarensis,non-sister1
61,centralis,australis,non-sister1
62,pinguis,australis,non-sister1
63,leptosoma,silvia,non-sister1
40,grypusET,guentheri,non-sister2
42,tovelli,diversus,non-sister2
43,ammodytes,broomi,non-sister2
45,margaretae,wiedii,non-sister2
51,ganei,ligatusE,non-sister2
52,troglodytes,ligatusE,non-sister2
53,unguirostris,ligatusE,non-sister2
60,hamatus,australis,non-sister2
61,waitii,australis,non-sister2
62,bicolor,waitii,non-sister2
63,grypusW,australis,non-sister2
40,affinis,guentheri,non-sister2
42,broomi,diversus,non-sister2
43,diversus,broomi,non-sister2
45,bituberculatus,wiedii,non-sister2
51,ligatus,ligatusE,non-sister2
52,kimberleyensis,ligatusE,non-sister2
53,yirrikalae,ligatusE,non-sister2
60,endoterus,australis,non-sister2
61,centralis,australis,non-sister2
62,pinguis,waitii,non-sister2
63,leptosoma,australis,non-sister2
